-------------------------------------------------------------------------------
Test set: kodlamaio.hrms.HrmsApplicationTests
-------------------------------------------------------------------------------
Tests run: 1, Failures: 0, Errors: 0, Skipped: 0, Time elapsed: 163.409 s - in kodlamaio.hrms.HrmsApplicationTests
